{
  "apps":
    [
      {
        "title": "WriteFreely",
        "source": "https://github.com/writeas/writefreely",
        "protocols": "ActivityPub",
        "site": "https://writefreely.org",
        "logo": "/img/misc/writefreely.svg",
        "servers": "https://the-federation.info/writefreely",
        "apClass": true,
        "zotClass": false,
        "diasporaClass": false,
        "OStatusClass": false,
        "categories": ["Blog-Pub"]
      },
      {
        "title": "Plume",
        "source": "https://github.com/Plume-org/Plume",
        "protocols": "ActivityPub",
        "site": "https://joinplu.me",
        "logo": "/img/misc/plume.svg",
        "servers": "https://the-federation.info/plume",
        "apClass": true,
        "zotClass": false,
        "diasporaClass": false,
        "OStatusClass": false,
        "categories": ["Blog-Pub"]
      },
      {
        "title": "Funkwhale",
        "source": "https://code.eliotberriot.com/funkwhale/funkwhale",
        "protocols": "ActivityPub",
        "site": "https://funkwhale.audio",
        "logo": "/img/misc/funkwhale.svg",
        "servers": "https://the-federation.info/funkwhale",
        "apClass": true,
        "zotClass": false,
        "diasporaClass": false,
        "OStatusClass": false,
        "categories": ["Media"]
      },
      {
        "title": "GangGo",
        "source": "https://git.feneas.org/ganggo/ganggo",
        "protocols": "diaspora",
        "site": "https://ganggo.github.io",
        "logo": "/img/misc/ganggo.svg",
        "servers": "https://the-federation.info/ganggo",
        "apClass": false,
        "zotClass": false,
        "diasporaClass": true,
        "OStatusClass": false,
        "categories": ["SN-ma"]
      },
      {
        "title": "Aardwolf",
        "source": "https://github.com/Aardwolf-Social/aardwolf",
        "protocols": "ActivityPub",
        "site": "https://aardwolf.social",
        "logo": "/img/misc/aardwolf.png",
        "servers": "",
        "apClass": true,
        "zotClass": false,
        "diasporaClass": false,
        "OStatusClass": false,
        "categories": ["SN-ma"]
      },
      {
        "title": "CommonsPub",
        "source": "https://gitlab.com/OpenCoop/CommonsPub",
        "protocols": "ActivityPub",
        "site": "https://commonspub.org",
        "logo": "/img/misc/commonspub.png",
        "servers": "",
        "apClass": true,
        "zotClass": false,
        "diasporaClass": false,
        "OStatusClass": false,
        "categories": ["Coop"]
      },
      {
        "title": "Prismo",
        "source": "https://gitlab.com/mbajur/prismo",
        "protocols": "ActivityPub",
        "site": "",
        "logo": "/img/misc/prismo.png",
        "servers": "",
        "apClass": true,
        "zotClass": false,
        "diasporaClass": false,
        "OStatusClass": false,
        "categories": ["Links"]
      },
      {
        "title": "Read.as",
        "source": "https://github.com/writeas/Read.as",
        "protocols": "ActivityPub",
        "site": "https://read.as",
        "logo": "/img/misc/readas.svg",
        "servers": "https://the-federation.info/read.as",
        "apClass": true,
        "zotClass": false,
        "diasporaClass": false,
        "OStatusClass": false,
        "categories": ["Blog-Pub"]
      },
      {
        "title": "dokieli",
        "source": "https://github.com/linkeddata/dokieli",
        "protocols": "ActivityPub",
        "site": "https://dokie.li",
        "logo": "/img/misc/dokieli.png",
        "servers": "",
        "apClass": true,
        "zotClass": false,
        "diasporaClass": false,
        "OStatusClass": false,
        "categories": ["Blog-Pub"]
      },
      {
        "title": "FediBlog",
        "source": "https://framagit.org/DavidLibeau/FediBlog",
        "protocols": "ActivityPub",
        "site": "https://fedi.blog",
        "logo": "/img/misc/fediblog.svg",
        "servers": "",
        "apClass": true,
        "zotClass": false,
        "diasporaClass": false,
        "OStatusClass": false,
        "categories": ["Blog-Pub"]
      },
      {
        "title": "Anfora",
        "source": "https://github.com/anforaProject/anfora",
        "protocols": "ActivityPub",
        "site": "https://anfora.app",
        "logo": "/img/misc/anfora.svg",
        "servers": "",
        "apClass": true,
        "zotClass": false,
        "diasporaClass": false,
        "OStatusClass": false,
        "categories": ["Media"]
      },
      {
        "title": "Nextcloud-Social",
        "source": "https://github.com/nextcloud/social",
        "protocols": "ActivityPub",
        "site": "https://apps.nextcloud.com/apps/social",
        "logo": "/img/misc/nextcloud.png",
        "servers": "",
        "apClass": true,
        "zotClass": false,
        "diasporaClass": false,
        "OStatusClass": false,
        "categories": ["Files"]
      },
      {
        "title": "Lemmy",
        "source": "https://github.com/dessalines/lemmy",
        "protocols": "ActivityPub",
        "site": "",
        "logo": "/img/misc/lemmy.svg",
        "servers": "",
        "apClass": true,
        "zotClass": false,
        "diasporaClass": false,
        "OStatusClass": false,
        "categories": ["Links"]
      },
      {
        "title": "Pterotype",
        "source": "https://github.com/pterotype-project/pterotype",
        "protocols": "ActivityPub",
        "site": "",
        "logo": "/img/misc/pterotype.png",
        "servers": "",
        "apClass": true,
        "zotClass": false,
        "diasporaClass": false,
        "OStatusClass": false,
        "categories": ["Plugins"]
      },
      {
        "title": "Rustodon",
        "source": "https://github.com/rustodon/rustodon",
        "protocols": "ActivityPub",
        "site": "",
        "logo": "",
        "servers": "https://fediverse.network/rustodon",
        "apClass": true,
        "zotClass": false,
        "diasporaClass": false,
        "OStatusClass": false,
        "categories": ["SN-mi"]
      },
      {
        "title": "microblog.pub",
        "source": "https://github.com/tsileo/microblog.pub",
        "protocols": "ActivityPub",
        "site": "",
        "logo": "",
        "servers": "https://fediverse.network/microblogpub",
        "apClass": true,
        "zotClass": false,
        "diasporaClass": false,
        "OStatusClass": false,
        "categories": ["SN-mi"]
      },
      {
        "title": "microstatus",
        "source": "https://github.com/Arkanosis/microstatus",
        "protocols": "ActivityPub, OStatus",
        "site": "",
        "logo": "",
        "servers": "",
        "apClass": true,
        "zotClass": false,
        "diasporaClass": false,
        "OStatusClass": true,
        "categories": ["SN-mi"]
      },
      {
        "title": "Mobilizon",
        "source": "https://framagit.org/framasoft/mobilizon",
        "protocols": "ActivityPub",
        "site": "https://joinmobilizon.org/en",
        "logo": "",
        "servers": "https://the-federation.info/mobilizon",
        "apClass": true,
        "zotClass": false,
        "diasporaClass": false,
        "OStatusClass": false,
        "categories": ["Ev-Meet"]
      },
      {
        "title": "Kibou",
        "source": "https://git.cybre.club/kibouproject/kibou",
        "protocols": "ActivityPub",
        "site": "",
        "logo": "",
        "servers": "https://the-federation.info/kibou",
        "apClass": true,
        "zotClass": false,
        "diasporaClass": false,
        "OStatusClass": false,
        "categories": ["SN-mi"]
      },
      {
        "title": "Reel2Bits",
        "source": "https://github.com/rhaamo/reel2bits",
        "protocols": "ActivityPub",
        "site": "https://reel2bits.org",
        "logo": "",
        "servers": "https://fediverse.network/reel2bits",
        "apClass": true,
        "zotClass": false,
        "diasporaClass": false,
        "OStatusClass": false,
        "categories": ["Media"]
      },
      {
        "title": "Littr.go",
        "source": "https://github.com/mariusor/littr.go",
        "protocols": "ActivityPub",
        "site": "",
        "logo": "",
        "servers": "",
        "apClass": true,
        "zotClass": false,
        "diasporaClass": false,
        "OStatusClass": false,
        "categories": ["Links"]
      },
      {
        "title": "ForgeFed",
        "source": "https://github.com/forgefed/forgefed",
        "protocols": "ActivityPub",
        "site": "",
        "logo": "",
        "servers": "",
        "apClass": true,
        "zotClass": false,
        "diasporaClass": false,
        "OStatusClass": false,
        "categories": ["DevTools"]
      },
      {
        "title": "Go-Fed Activity",
        "source": "https://github.com/go-fed/activity",
        "protocols": "ActivityPub",
        "site": "https://go-fed.org",
        "logo": "",
        "servers": "",
        "apClass": true,
        "zotClass": false,
        "diasporaClass": false,
        "OStatusClass": false,
        "categories": ["DevTools"]
      },
      {
        "title": "BridgyFed",
        "source": "https://github.com/snarfed/bridgy-fed",
        "protocols": "ActivityPub, OStatus",
        "site": "https://fed.brid.gy",
        "logo": "",
        "servers": "",
        "apClass": true,
        "zotClass": false,
        "diasporaClass": false,
        "OStatusClass": true,
        "categories": ["DevTools"]
      },
      {
        "title": "Federation",
        "source": "https://git.feneas.org/jaywink/federation",
        "protocols": "ActivityPub, diaspora",
        "site": "https://federation.readthedocs.io",
        "logo": "",
        "servers": "",
        "apClass": true,
        "zotClass": false,
        "diasporaClass": true,
        "OStatusClass": false,
        "categories": ["DevTools"]
      },
      {
        "title": "Little Boxes",
        "source": "https://github.com/tsileo/little-boxes",
        "protocols": "ActivityPub",
        "site": "https://little-boxes.readthedocs.io",
        "logo": "",
        "servers": "",
        "apClass": true,
        "zotClass": false,
        "diasporaClass": false,
        "OStatusClass": false,
        "categories": ["DevTools"]
      },
      {
        "title": "Python ActivityPub",
        "source": "https://github.com/dsblank/activitypub",
        "protocols": "ActivityPub",
        "site": "",
        "logo": "",
        "servers": "",
        "apClass": true,
        "zotClass": false,
        "diasporaClass": false,
        "OStatusClass": false,
        "categories": ["DevTools"]
      },
      {
        "title": "ActivityPub PHP",
        "source": "https://github.com/pterotype-project/activitypub-php",
        "protocols": "ActivityPub",
        "site": "",
        "logo": "",
        "servers": "",
        "apClass": true,
        "zotClass": false,
        "diasporaClass": false,
        "OStatusClass": false,
        "categories": ["DevTools"]
      },
      {
        "title": "Express ActivityPub",
        "source": "https://github.com/dariusk/express-activitypub",
        "protocols": "ActivityPub",
        "site": "",
        "logo": "",
        "servers": "",
        "apClass": true,
        "zotClass": false,
        "diasporaClass": false,
        "OStatusClass": false,
        "categories": ["DevTools"]
      },
      {
        "title": "pubgate",
        "source": "https://github.com/autogestion/pubgate",
        "protocols": "ActivityPub",
        "site": "",
        "logo": "",
        "servers": "",
        "apClass": true,
        "zotClass": false,
        "diasporaClass": false,
        "OStatusClass": false,
        "categories": ["DevTools"]
      },
      {
        "title": "Nautilus",
        "source": "https://github.com/aaronpk/Nautilus",
        "protocols": "ActivityPub",
        "site": "",
        "logo": "",
        "servers": "",
        "apClass": true,
        "zotClass": false,
        "diasporaClass": false,
        "OStatusClass": false,
        "categories": ["DevTools"]
      },
      {
        "title": "WordPress-ActivityPub",
        "source": "https://github.com/pfefferle/wordpress-activitypub",
        "protocols": "ActivityPub",
        "site": "https://wordpress.org/plugins/activitypub",
        "logo": "",
        "servers": "",
        "apClass": true,
        "zotClass": false,
        "diasporaClass": false,
        "OStatusClass": false,
        "categories": ["Plugins"]
      },
      {
        "title": "WordPress-OStatus",
        "source": "https://github.com/pfefferle/wordpress-ostatus",
        "protocols": "OStatus",
        "site": "https://wordpress.org/plugins/ostatus-for-wordpress",
        "logo": "",
        "servers": "",
        "apClass": false,
        "zotClass": false,
        "diasporaClass": false,
        "OStatusClass": true,
        "categories": ["Plugins"]
      },
      {
        "title": "Zap",
        "source": "https://framagit.org/zot/zap",
        "protocols": "Zot",
        "site": "https://zotlabs.com/zap",
        "logo": "",
        "servers": "",
        "apClass": false,
        "zotClass": true,
        "diasporaClass": false,
        "OStatusClass": false,
        "categories": ["SN-ma"]
      },
      {
        "title": "Osada",
        "source": "https://gitlab.com/apfed/osada",
        "protocols": "Zot",
        "site": "https://zotlabs.com/osada",
        "logo": "/img/misc/osada.svg",
        "servers": "",
        "apClass": false,
        "zotClass": true,
        "diasporaClass": false,
        "OStatusClass": false,
        "categories": ["SN-ma"]
      },
      {
        "title": "distbin",
        "source": "https://github.com/gobengo/distbin",
        "protocols": "ActivityPub",
        "site": "https://distbin.com",
        "logo": "",
        "servers": "",
        "apClass": true,
        "zotClass": false,
        "diasporaClass": false,
        "OStatusClass": false,
        "categories": ["DevTools"]
      },
      {
        "title": "LitePub",
        "source": "https://github.com/litepub/litepub",
        "protocols": "ActivityPub",
        "site": "https://litepub.social/litepub",
        "logo": "",
        "servers": "",
        "apClass": true,
        "zotClass": false,
        "diasporaClass": false,
        "OStatusClass": false,
        "categories": ["DevTools"]
      },
      {
        "title": "p3k",
        "source": "https://indieweb.org/p3k",
        "protocols": "ActivityPub",
        "site": "https://indieweb.org/p3k",
        "logo": "",
        "servers": "https://the-federation.info/p3k",
        "apClass": true,
        "zotClass": false,
        "diasporaClass": false,
        "OStatusClass": false,
        "categories": ["DevTools"]
      },
      {
        "title": "Activity relay",
        "source": "https://git.pleroma.social/pleroma/relay",
        "protocols": "ActivityPub",
        "site": "",
        "logo": "",
        "servers": "https://fediverse.network/activityrelay",
        "apClass": true,
        "zotClass": false,
        "diasporaClass": false,
        "OStatusClass": false,
        "categories": ["Relays"]
      },
      {
        "title": "Pub relay",
        "source": "https://source.joinmastodon.org/mastodon/pub-relay",
        "protocols": "ActivityPub",
        "site": "",
        "logo": "",
        "servers": "",
        "apClass": true,
        "zotClass": false,
        "diasporaClass": false,
        "OStatusClass": false,
        "categories": ["Relays"]
      },
      {
        "title": "Social relay",
        "source": "https://github.com/jaywink/social-relay",
        "protocols": "diaspora",
        "site": "",
        "logo": "",
        "servers": "https://the-federation.info/social-relay",
        "apClass": false,
        "zotClass": false,
        "diasporaClass": true,
        "OStatusClass": false,
        "categories": ["Relays"]
      },
      {
        "title": "Seattle relay",
        "source": "https://gitlab.com/jankysolutions/social.seattle.wa.us/relay",
        "protocols": "ActivityPub",
        "site": "",
        "logo": "",
        "servers": "https://fediverse.network/social.seattle.wa.us-relay",
        "apClass": true,
        "zotClass": false,
        "diasporaClass": false,
        "OStatusClass": false,
        "categories": ["Relays"]
      },
      {
        "title": "MoonTree",
        "source": "https://github.com/Faleidel/moontreeproject",
        "protocols": "ActivityPub",
        "site": "",
        "logo": "",
        "servers": "",
        "apClass": true,
        "zotClass": false,
        "diasporaClass": false,
        "OStatusClass": false,
        "categories": ["Links"]
      },
      {
        "title": "Pubcast",
        "source": "https://github.com/pubcast/pubcast",
        "protocols": "ActivityPub",
        "site": "https://pubcast.pub",
        "logo": "",
        "servers": "",
        "apClass": true,
        "zotClass": false,
        "diasporaClass": false,
        "OStatusClass": false,
        "categories": ["Media"]
      },
      {
        "title": "Gancio",
        "source": "https://framagit.org/les/gancio",
        "protocols": "ActivityPub",
        "site": "https://gancio.org",
        "logo": "",
        "servers": "https://the-federation.info/gancio",
        "apClass": true,
        "zotClass": false,
        "diasporaClass": false,
        "OStatusClass": false,
        "categories": ["Ev-Meet"]
      }
    ]
}
